# 3ds Max Wavefront OBJ Exporter v0.94b - (c)2007 guruware
# File Created: 06.02.2009 00:08:54

newmtl 01___Default
	Ns 10.0000
	Ni 1.5000
	d 1.0000
	Tr 1.0000
	Tf 1.0000 1.0000 1.0000 
	illum 2
	Ka 0.0000 0.0000 0.0000
	Kd 0.5882 0.5882 0.5882
	Ks 0.0000 0.0000 0.0000
	Ke 0.0000 0.0000 0.0000
	map_Kd sun_4.jpg

newmtl wire_214228153
	Ns 32
	d 1
	Tr 1
	Tf 1 1 1
	illum 2
	Ka 0.0000 0.0000 0.0000
	Kd 0.8392 0.8941 0.6000
	Ks 0.3500 0.3500 0.3500

newmtl wire_138008110
	Ns 32
	d 1
	Tr 1
	Tf 1 1 1
	illum 2
	Ka 0.0000 0.0000 0.0000
	Kd 0.5412 0.0314 0.4314
	Ks 0.3500 0.3500 0.3500

newmtl wire_008061138
	Ns 32
	d 1
	Tr 1
	Tf 1 1 1
	illum 2
	Ka 0.0000 0.0000 0.0000
	Kd 0.0314 0.2392 0.5412
	Ks 0.3500 0.3500 0.3500

newmtl wire_088177027
	Ns 32
	d 1
	Tr 1
	Tf 1 1 1
	illum 2
	Ka 0.0000 0.0000 0.0000
	Kd 0.3451 0.6941 0.1059
	Ks 0.3500 0.3500 0.3500

newmtl wire_143225087
	Ns 32
	d 1
	Tr 1
	Tf 1 1 1
	illum 2
	Ka 0.0000 0.0000 0.0000
	Kd 0.5608 0.8824 0.3412
	Ks 0.3500 0.3500 0.3500

newmtl wire_153228153
	Ns 32
	d 1
	Tr 1
	Tf 1 1 1
	illum 2
	Ka 0.0000 0.0000 0.0000
	Kd 0.6000 0.8941 0.6000
	Ks 0.3500 0.3500 0.3500

newmtl wire_006135006
	Ns 32
	d 1
	Tr 1
	Tf 1 1 1
	illum 2
	Ka 0.0000 0.0000 0.0000
	Kd 0.0235 0.5294 0.0235
	Ks 0.3500 0.3500 0.3500

newmtl wire_166229229
	Ns 32
	d 1
	Tr 1
	Tf 1 1 1
	illum 2
	Ka 0.0000 0.0000 0.0000
	Kd 0.6510 0.8980 0.8980
	Ks 0.3500 0.3500 0.3500

newmtl wire_108008136
	Ns 32
	d 1
	Tr 1
	Tf 1 1 1
	illum 2
	Ka 0.0000 0.0000 0.0000
	Kd 0.4235 0.0314 0.5333
	Ks 0.3500 0.3500 0.3500

newmtl wire_140088225
	Ns 32
	d 1
	Tr 1
	Tf 1 1 1
	illum 2
	Ka 0.0000 0.0000 0.0000
	Kd 0.5490 0.3451 0.8824
	Ks 0.3500 0.3500 0.3500

newmtl wire_225198087
	Ns 32
	d 1
	Tr 1
	Tf 1 1 1
	illum 2
	Ka 0.0000 0.0000 0.0000
	Kd 0.8824 0.7765 0.3412
	Ks 0.3500 0.3500 0.3500
